0.2545454502105713
0.039855074137449265
0.05714285746216774
0.0656716451048851
0.11731843650341034
0.051643192768096924
0.027027027681469917
0.06936416029930115
0.03619909659028053
0.04363636299967766
0.08727272599935532
0.03181818127632141
0.15189872682094574
0.11557789146900177
0.113772451877594
0.1146496832370758
0.07446808367967606
0.0476190485060215
0.11176470667123795
0.05351170524954796
0.0656934306025505
0.05161290243268013
0.0912863090634346
0.12169311940670013
0.10294117778539658
0.0555555559694767
0.16245487332344055
0.06474819779396057
0.10091742873191833
0.08219178020954132
0.10236220806837082
0.10326086729764938
0.1195652186870575
0.05494505539536476
0.11999999731779099
0.28901734948158264
0.10982658714056015
0.10810811072587967
0.14965985715389252
0.1607142835855484
0.051948051899671555
0.10408922284841537
0.08441558480262756
0.07555555552244186
0.05494505539536476
0.26119402050971985
0.08888889104127884
0.03873239457607269
0.03404255211353302
0.036363635212183
0.04827586188912392
0.08438818901777267
0.09142857044935226
0.09322033822536469
0.12080536782741547
0.06374502182006836
0.11409395933151245
0.1066666692495346
0.0706319734454155
0.125
0.03664921596646309
0.1216617226600647
0.09803921729326248
0.08074533939361572
0.11724138259887695
0.0416666679084301
0.027027027681469917
0.02958579920232296
0.03191489353775978
0.03999999910593033
0.028985507786273956
0.06617647409439087
0.042328041046857834
0.05298013240098953
0.0839160829782486
0.03664921596646309
0.0962962955236435
0.1139240488409996
0.05932203307747841
0.06687898188829422
0.10084033757448196
0.07182320207357407
0.034246575087308884
0.021834060549736023
0.047337278723716736
0.043209876865148544
0.05960264801979065
0.018691588193178177
0.0714285746216774
0.05524861812591553
0.0458715595304966
0.04641350358724594
0.0347222238779068
0.2750000059604645
0.12800000607967377
0.0875576063990593
0.04278074949979782
0.0810810774564743
0.10135135054588318
0.022727273404598236